<?xml version="1.0" encoding="UTF-8" standalone="no"?>
<!-- Created with Inkscape (http://www.inkscape.org/) -->
<svg
   xmlns:dc="http://purl.org/dc/elements/1.1/"
   xmlns:cc="http://creativecommons.org/ns#"
   xmlns:rdf="http://www.w3.org/1999/02/22-rdf-syntax-ns#"
   xmlns:svg="http://www.w3.org/2000/svg"
   xmlns="http://www.w3.org/2000/svg"
   xmlns:sodipodi="http://sodipodi.sourceforge.net/DTD/sodipodi-0.dtd"
   xmlns:inkscape="http://www.inkscape.org/namespaces/inkscape"
   width="250"
   height="250"
   id="svg3286"
   sodipodi:version="0.32"
   inkscape:version="0.46"
   version="1.0"
   sodipodi:docname="quitcount-tu.svg"
   inkscape:output_extension="org.inkscape.output.svg.inkscape">
  <defs
     id="defs3288">
    <inkscape:perspective
       sodipodi:type="inkscape:persp3d"
       inkscape:vp_x="0 : 526.18109 : 1"
       inkscape:vp_y="0 : 1000 : 0"
       inkscape:vp_z="744.09448 : 526.18109 : 1"
       inkscape:persp3d-origin="372.04724 : 350.78739 : 1"
       id="perspective3294" />
  </defs>
  <sodipodi:namedview
     id="base"
     pagecolor="#ffffff"
     bordercolor="#666666"
     borderopacity="1.0"
     inkscape:pageopacity="0.0"
     inkscape:pageshadow="2"
     inkscape:zoom="1.4"
     inkscape:cx="37.017882"
     inkscape:cy="103.33673"
     inkscape:document-units="px"
     inkscape:current-layer="layer1"
     showgrid="false"
     inkscape:window-width="1095"
     inkscape:window-height="712"
     inkscape:window-x="218"
     inkscape:window-y="157" />
  <metadata
     id="metadata3291">
    <rdf:RDF>
      <cc:Work
         rdf:about="">
        <dc:format>image/svg+xml</dc:format>
        <dc:type
           rdf:resource="http://purl.org/dc/dcmitype/StillImage" />
        <dc:title>no smoking_sign</dc:title>
        <dc:creator>
          <cc:Agent>
            <dc:title>Torsten Skomp</dc:title>
          </cc:Agent>
        </dc:creator>
        <dc:rights>
          <cc:Agent>
            <dc:title>Torsten Skomp</dc:title>
          </cc:Agent>
        </dc:rights>
        <dc:date>2008-06-29</dc:date>
        <cc:license
           rdf:resource="http://creativecommons.org/licenses/publicdomain/" />
      </cc:Work>
      <cc:License
         rdf:about="http://creativecommons.org/licenses/publicdomain/">
        <cc:permits
           rdf:resource="http://creativecommons.org/ns#Reproduction" />
        <cc:permits
           rdf:resource="http://creativecommons.org/ns#Distribution" />
        <cc:permits
           rdf:resource="http://creativecommons.org/ns#DerivativeWorks" />
      </cc:License>
    </rdf:RDF>
  </metadata>
  <g
     inkscape:label="Ebene 1"
     inkscape:groupmode="layer"
     id="layer1"
     transform="translate(-247.04724,-401.18109)">
    <rect
       style="opacity:1;fill:#ffffff;fill-opacity:0.6785714;fill-rule:nonzero;stroke:none;stroke-opacity:1"
       id="rect2383"
       width="227.14285"
       height="229.28572"
       x="12.142858"
       y="11.428571"
       transform="translate(247.04724,401.18109)" />
    <path
       style="fill:#c4261d;fill-opacity:1"
       d="M 267.04724,401.18109 C 255.78034,401.36324 247.5019,410.06163 247.04724,421.18109 L 247.04724,631.18109 C 247.04724,642.26109 255.96724,651.18109 267.04724,651.18109 L 477.04724,651.18109 C 488.35661,651.00829 496.59455,642.25237 497.04724,631.18109 L 497.04724,421.18109 C 497.04724,410.10109 488.12724,401.18109 477.04724,401.18109 L 267.04724,401.18109 z M 281.82849,420.58734 L 472.51599,420.58734 C 475.3567,420.58734 477.64099,422.87163 477.64099,425.71234 L 477.64099,616.43109 L 281.82849,420.58734 z M 266.45349,435.93109 L 462.26599,631.77484 L 271.57849,631.77484 C 268.73778,631.77485 266.45349,629.49055 266.45349,626.64984 L 266.45349,435.93109 z"
       id="path2460"
       sodipodi:nodetypes="ccccccccccccccccccc" />
    <path
       style="fill:#000000;fill-opacity:1;fill-rule:evenodd;stroke:#000000;stroke-width:0.0666109;stroke-opacity:1"
       id="path9"
       d="M 290.10082,594.20466 L 315.25746,594.20466 C 326.80343,607.48233 339.34846,617.20753 352.82605,623.35792 C 357.06693,623.71325 360.24205,623.89086 362.26253,623.89086 C 368.01327,623.89086 374.51893,622.84721 381.82388,620.82673 L 387.86327,623.89086 L 395.10167,623.89086 C 411.62125,623.89086 419.90323,617.96252 419.90323,606.1724 C 419.90323,605.48403 419.79217,604.50706 419.57007,603.10814 C 431.69323,602.13129 437.79929,596.3362 437.79929,585.78945 C 437.79929,584.65712 437.68826,583.10278 437.46627,581.08223 C 441.95133,579.81667 445.34854,577.79613 447.63549,574.97634 C 449.94464,572.223 451.09927,568.6483 451.09927,564.3851 C 451.09927,560.94363 449.87808,557.19115 447.4134,553.2833 C 453.45279,546.77763 456.49478,539.53929 456.49478,531.54592 C 456.49478,522.33148 451.49887,514.91546 441.48505,509.27578 C 431.47124,503.70266 418.23795,500.8827 401.71838,500.8827 L 397.52198,500.8827 C 398.8541,490.75786 401.96267,480.9662 406.78085,471.52959 L 409.48971,466.82244 C 415.307,455.69838 418.23795,447.08338 418.23795,441.04393 C 418.23795,424.30253 409.44522,413.82228 391.77113,409.67027 L 386.88636,408.47132 L 378.42678,445.92885 L 347.23075,479.1232 C 345.09921,481.61007 341.43563,486.38378 336.12886,493.44451 L 331.42171,499.66156 C 326.35935,506.52255 322.78452,510.71895 320.71955,512.20661 C 318.63249,513.76096 315.30185,514.51588 310.70573,514.51588 L 290.96678,514.51588 C 284.9274,527.39395 281.8854,540.69387 281.8854,554.26025 C 281.8854,567.49367 284.63873,580.8602 290.10082,594.20466 z M 295.69612,585.45642 C 292.16568,575.22045 290.45603,565.42864 290.45603,556.10325 C 290.45603,545.11242 292.3434,534.2992 296.20676,523.59709 C 310.35053,523.59709 319.2097,522.73112 322.78452,521.0659 C 326.40372,519.40064 331.82142,513.4723 339.01544,503.34744 C 341.87959,499.43953 346.25372,493.84427 351.96008,486.71694 L 385.84279,450.63601 L 392.57055,419.39548 C 403.84991,423.25895 409.48971,430.45297 409.48971,441.04393 C 409.48971,446.50617 407.60234,452.47882 403.73886,458.87343 L 401.56295,462.60374 C 392.74815,477.2359 388.37403,491.15761 388.37403,504.43534 L 388.19642,509.16474 L 394.30236,509.16474 C 412.13189,509.16474 425.60946,510.94099 434.57981,514.44921 C 443.61659,518.02403 448.10177,523.375 448.10177,530.56902 C 448.10177,537.07467 445.74824,542.58112 441.08546,547.06635 C 436.42268,551.57371 430.71632,553.81618 423.98857,553.81618 L 413.68611,553.92722 L 383.13393,540.16099 C 387.75234,533.21125 393.94715,529.7031 401.71838,529.7031 C 403.73886,529.7031 406.33677,530.16937 409.44522,531.01315 C 412.59815,531.94569 416.28403,533.3223 420.59147,535.09856 L 428.54043,535.45384 L 436.46706,526.99425 L 422.78968,526.81664 C 418.81516,525.15131 415.24043,523.88563 411.97646,523.13071 C 408.73479,522.33148 405.75946,521.93188 403.05061,521.93188 C 388.6627,521.93188 378.13813,529.23684 371.52142,543.84675 L 377.27227,546.5556 C 370.1893,550.01937 364.7271,556.10325 360.88594,564.74045 L 367.50263,567.56018 C 362.30691,570.84639 357.5332,576.41951 353.15907,584.23523 L 363.57259,589.14218 C 357.88843,593.33863 353.27013,599.20048 349.76198,606.86065 L 370.47795,616.11958 C 367.14729,616.80788 364.26084,617.16317 361.90732,617.16317 L 355.35729,616.98549 C 340.39194,608.3483 328.24659,597.82379 318.92104,585.45642 L 295.69612,585.45642 z M 372.565,561.01019 C 376.47286,555.7701 381.18,552.37294 386.70876,550.92972 L 411.84323,562.2092 L 420.76908,562.2092 C 429.22867,562.2092 435.62328,561.01019 439.99739,558.63438 C 441.4185,560.65491 442.17342,562.60886 442.17342,564.3851 C 442.17342,567.84889 440.44147,570.4245 437.04437,572.223 C 433.60278,573.95495 428.47373,574.79856 421.63504,574.79856 L 403.73886,574.79856 L 372.565,561.01019 z M 365.48203,580.7269 C 365.99279,580.03866 366.45904,579.46141 366.79209,579.01732 C 369.50094,575.90888 372.72042,573.42195 376.4063,571.64569 L 402.25132,583.10278 L 429.51732,582.92517 L 430.02796,585.10102 C 430.02796,591.71778 423.47793,595.07052 410.28901,595.07052 L 397.63291,595.07052 L 365.48203,580.7269 z M 361.90732,603.46348 C 362.70662,602.48664 363.28394,601.68721 363.75019,601.10986 C 365.88173,598.04579 368.59058,595.35911 371.85457,592.87236 L 395.96764,603.64109 L 411.5102,603.64109 L 411.5102,604.66248 C 411.5102,612.21178 406.04812,615.94185 395.10167,615.94185 L 389.59521,615.94185 L 361.90732,603.46348 z"
       class="fil0 str0" />
    <path
       style="opacity:1;fill:#ffffff;fill-opacity:1;fill-rule:nonzero;stroke:#000000;stroke-width:0.4944126;stroke-opacity:1"
       d="M 350.47055,613.62336 C 338.78788,606.21607 329.17924,597.70786 320.93177,587.46755 L 319.04743,585.12791 L 307.41272,584.99549 L 295.77791,584.86308 L 294.64301,581.04542 C 292.20957,572.86003 291.34256,567.36891 291.09015,558.54377 C 290.75595,546.86115 292.02919,537.35219 295.2287,527.63482 L 296.49031,523.8031 L 301.02298,523.79531 C 306.84017,523.78534 316.52767,522.98319 319.53413,522.26277 C 320.81967,521.95476 322.77326,521.19026 323.87549,520.56416 C 326.50349,519.07109 331.87439,513.37687 336.71094,506.95595 C 348.08963,491.84981 353.31985,485.70251 369.16105,468.81644 L 386.14503,450.71232 L 389.31784,435.71514 C 391.06302,427.46685 392.67148,420.5112 392.89242,420.25825 C 393.71623,419.31555 400.61856,423.43918 403.66151,426.69217 C 407.32588,430.60927 408.69982,433.96437 409.01032,439.75298 C 409.371,446.48125 407.5654,451.8744 401.50336,462.17395 C 395.69419,472.04394 391.68377,481.67535 389.81175,490.25249 C 388.946,494.21924 387.90335,503.73809 387.88326,507.85839 L 387.87547,509.46513 L 395.22084,509.46513 C 408.37817,509.46513 423.11215,511.13236 430.73421,513.48344 C 438.20435,515.78783 443.50589,519.30841 446.05433,523.65703 C 447.81566,526.66256 448.19051,531.92466 446.9656,536.44991 C 445.39524,542.25152 440.65624,548.04482 435.22379,550.80426 C 431.17445,552.86111 427.76749,553.46793 420.26959,553.46793 L 413.31834,553.46793 L 398.78045,546.90605 C 390.78459,543.29707 384.15731,540.0885 384.05311,539.77597 C 383.69383,538.69807 389.38706,533.62617 392.69298,532.07909 C 398.46009,529.38035 404.30978,529.50923 412.84325,532.52312 C 420.28759,535.15222 422.40996,535.66902 425.76477,535.66902 L 428.82977,535.66902 L 432.81569,531.34293 L 436.80148,527.01678 L 429.51929,526.74299 C 423.11052,526.50196 421.82661,526.30589 418.81458,525.10827 C 404.28796,519.33228 390.33028,521.20652 380.78008,530.21566 C 378.90397,531.98553 376.53825,534.65965 375.52278,536.15811 C 373.47988,539.17316 371.55987,542.76234 371.55987,543.56633 C 371.55987,543.8526 372.56105,544.57333 373.78468,545.16783 C 375.00842,545.76228 376.0095,546.40569 376.0095,546.59759 C 376.0095,546.78954 375.0521,547.50764 373.88179,548.19345 C 370.70784,550.05363 365.16503,556.21755 362.78399,560.53505 C 361.62831,562.63057 360.68276,564.46665 360.68276,564.6151 C 360.68276,564.76368 362.0387,565.4906 363.69607,566.23048 L 366.70937,567.57614 L 363.65611,570.23179 C 360.55766,572.9267 356.43851,578.06585 354.07396,582.18674 L 352.77273,584.45454 L 357.92327,586.81073 L 363.0738,589.16686 L 361.28959,590.72305 C 358.72593,592.95913 355.70786,596.28671 354.10462,598.64465 C 352.54494,600.93869 349.80566,606.11611 349.80566,606.76998 C 349.80566,607.00549 354.25447,609.18111 359.69192,611.60462 C 369.26547,615.87169 369.51953,616.02194 367.72612,616.35328 C 366.70752,616.54165 363.51881,616.70857 360.64013,616.72425 L 355.40619,616.7527 L 350.47055,613.62336 z"
       id="path3165" />
    <path
       style="opacity:1;fill:#ffffff;fill-opacity:1;fill-rule:nonzero;stroke:#000000;stroke-width:0.4944126;stroke-opacity:1"
       d="M 389.60591,568.31927 C 381.72004,564.78667 374.73151,561.65698 374.07578,561.36448 L 372.88375,560.83264 L 375.31184,558.32823 C 378.3305,555.21474 382.19525,552.66631 384.99691,551.94158 C 387.11161,551.39453 387.26075,551.44598 399.31735,556.87798 L 411.50091,562.36724 L 419.15271,562.36724 C 427.40251,562.36724 434.09775,561.47949 437.62982,559.91713 L 439.72883,558.98855 L 440.59329,560.30714 C 441.06873,561.03238 441.5436,562.73814 441.6485,564.09773 C 442.01382,568.82956 438.42887,572.19094 431.38377,573.72217 C 429.87626,574.04974 423.15652,574.40873 416.30423,574.52767 L 403.94388,574.74234 L 389.60591,568.31927 z"
       id="path3167" />
    <path
       style="opacity:1;fill:#ffffff;fill-opacity:1;fill-rule:nonzero;stroke:#000000;stroke-width:0.4944126;stroke-opacity:1"
       d="M 382.43685,588.0538 C 373.87122,584.20677 366.68348,580.89011 366.46428,580.68364 C 365.55126,579.82387 373.14243,573.11617 375.77671,572.45497 C 376.58019,572.25333 380.56692,573.78942 389.2608,577.6507 L 401.60408,583.13258 L 415.45151,583.13258 L 429.29894,583.13258 L 429.58574,584.27518 C 429.99904,585.92204 429.12668,588.60575 427.6684,590.17356 C 424.63988,593.42965 420.22569,594.44708 407.65195,594.78755 L 398.01089,595.04867 L 382.43685,588.0538 z"
       id="path3169" />
    <path
       style="opacity:1;fill:#ffffff;fill-opacity:1;fill-rule:nonzero;stroke:#000000;stroke-width:0.4944126;stroke-opacity:1"
       d="M 376.29653,609.70772 C 368.97648,606.37184 362.90712,603.40192 362.80919,603.10804 C 362.57524,602.40643 370.9534,593.51536 371.84842,593.51536 C 372.22791,593.51536 377.79767,595.85146 384.22561,598.70668 L 395.9127,603.89798 L 403.51282,603.89798 L 411.11282,603.89798 L 411.11282,605.39703 C 411.11282,606.22165 410.76736,607.72336 410.345,608.73441 C 408.37573,613.44854 404.43919,615.26609 395.5389,615.57026 L 389.60591,615.77307 L 376.29653,609.70772 z"
       id="path3171" />
  </g>
</svg>
